<?xml version="1.0" encoding="utf-8"?>
<!-- Generator: Adobe Illustrator 23.0.0, SVG Export Plug-In . SVG Version: 6.00 Build 0)  -->
<svg version="1.1" id="Слой_1" xmlns="http://www.w3.org/2000/svg" xmlns:xlink="http://www.w3.org/1999/xlink" x="0px" y="0px"
	 viewBox="0 0 357.4 89" style="enable-background:new 0 0 357.4 89;" xml:space="preserve">
<style type="text/css">
	.st0{fill:#5A5A59;}
	.st1{fill-rule:evenodd;clip-rule:evenodd;fill:#FAB523;}
	.st2{fill-rule:evenodd;clip-rule:evenodd;fill:#5A5A59;}
</style>
<g id="Слой_x0020_1">
	<path class="st0" d="M106.7,23.7h1.4V7.1h4V5.9h-5.4V23.7z M122,28.7h1.4v-5.4c0.4,0.2,1.1,0.4,1.9,0.4c1.6,0,2.8-1,2.8-2.9V13
		c0-1.4-1-2.2-2.1-2.2c-1.1,0-2,0.5-2.6,1.4v-1.3H122V28.7L122,28.7z M123.4,22.1v-7.9c0-1.3,0.9-2.1,2-2.1c0.7,0,1.2,0.5,1.2,1.3
		v7.5c0,1.1-0.8,1.7-1.7,1.7C124,22.6,123.4,22.1,123.4,22.1L123.4,22.1L123.4,22.1z M138.5,28.7h0.7c1.5,0,2.4-0.9,2.7-2.4
		l3.3-15.4h-1.5l-2.1,11.3h-0.1l-2-11.3H138l2.6,12.7h0.4l-0.6,2.7c-0.2,0.7-0.5,1.2-1.2,1.2h-0.7V28.7z M155.3,23.7h1.4V12.2h3.3
		v11.5h1.4V11h-6.2V23.7z M172.3,23.7h1.4V12.2h3.3v11.5h1.4V11h-6.2V23.7z M193.9,23.7h1.4v-9.9c0-1.8-1.4-2.9-3.1-2.9
		s-3.1,1-3.1,2.9V15h1.4v-1.2c0-1.1,0.7-1.7,1.6-1.7s1.6,0.6,1.6,1.7v2.5l-1.9,0.2c-1.6,0.2-2.8,1-2.8,2.9v2.3c0,1.3,0.9,2.1,2,2.1
		c1,0,2.1-0.5,2.7-1.4L193.9,23.7L193.9,23.7z M193.9,20.4c0,1.3-1.1,2.1-2.1,2.1c-0.6,0-1.2-0.4-1.2-1.2v-2c0-1.1,0.7-1.6,1.6-1.7
		l1.6-0.2V20.4z M223.6,23.7h1.4v-5.9h1.2l2.3,5.9h1.5l-2.8-6.5l2.7-6.2h-1.5l-2.3,5.6h-1.2V11h-1.4V23.7z M243.1,10.9
		c-1.7,0-3.1,1.1-3.1,2.9v7.1c0,1.8,1.4,2.9,3.1,2.9s3.1-1,3.1-2.9v-7.1C246.2,12,244.8,10.9,243.1,10.9z M241.5,13.8
		c0-1.1,0.7-1.7,1.6-1.7c0.9,0,1.6,0.6,1.6,1.7v7.1c0,1.1-0.7,1.7-1.6,1.7c-0.9,0-1.6-0.6-1.6-1.7V13.8z M256.9,23.7h1.3V12.7h0.1
		l2.5,10.9h1.6l2.5-10.9h0.1v10.9h1.3V11h-2.2l-2.5,10.8h-0.1L259,11h-2.1L256.9,23.7L256.9,23.7z M277.1,23.7h1.4V12.2h3.3v11.5
		h1.4V11h-6.2V23.7z M298.7,23.7h1.4v-9.9c0-1.8-1.4-2.9-3.1-2.9c-1.7,0-3.1,1-3.1,2.9V15h1.4v-1.2c0-1.1,0.7-1.7,1.6-1.7
		c0.9,0,1.6,0.6,1.6,1.7v2.5l-1.9,0.2c-1.6,0.2-2.8,1-2.8,2.9v2.3c0,1.3,0.9,2.1,2,2.1c1,0,2.1-0.5,2.7-1.4L298.7,23.7L298.7,23.7z
		 M298.7,20.4c0,1.3-1.1,2.1-2.1,2.1c-0.6,0-1.2-0.4-1.2-1.2v-2c0-1.1,0.7-1.6,1.6-1.7l1.6-0.2V20.4z M310.8,23.7h1.4v-5.9h3.3v5.9
		h1.4V11h-1.4v5.6h-3.3V11h-1.4V23.7z M327.9,23.7h1.4v-0.6l3.4-8.3h0v8.9h1.4V11h-1.4v0.6l-3.4,8.3h-0.1V11h-1.4V23.7z M345.7,7.1
		c0,1.5,1.1,2.3,2.4,2.3c1.3,0,2.4-0.9,2.4-2.3h-1c0,0.9-0.6,1.4-1.4,1.4c-0.7,0-1.3-0.5-1.3-1.4H345.7L345.7,7.1z M345,23.7h1.4
		v-0.6l3.4-8.3h0v8.9h1.4V11h-1.4v0.6l-3.4,8.3h-0.1V11H345V23.7z"/>
	<path class="st1" d="M45.5,5.9v34.7h11.6c4.2,0,8.2,1.4,11.6,3.9c-3.3,2.5-7.4,3.9-11.6,3.9H45.5v34.7h11.6
		c9.1,0,17.4-5.4,21.1-13.7s2.2-18.1-3.9-24.9c6.1-6.8,7.6-16.5,3.9-24.9S66.2,5.8,57.1,5.8L45.5,5.9L45.5,5.9z M49.4,36.7v-27h7.7
		c7.6,0,14.5,4.5,17.6,11.3c3.1,6.9,1.9,15-3.1,20.7c-4.1-3.3-9.2-5-14.4-5H49.4z M49.4,52.1h7.7c5.2,0,10.3-1.8,14.4-5
		c5,5.7,6.2,13.8,3.1,20.7c-3.1,6.9-10,11.3-17.6,11.3h-7.7V52.1z"/>
	<path class="st2" d="M37.8,10.1v68.6c-9-1.8-15.4-9.7-15.4-18.9V29C22.4,19.9,28.9,12,37.8,10.1z M25.3,12.7
		C21,17,18.6,22.9,18.6,29v13.5h-7.7V5.9H7v77h3.9V46.3h7.7v13.5c0,6.1,2.4,12,6.8,16.4c4.3,4.3,10.2,6.8,16.4,6.8v-77
		C35.6,5.9,29.7,8.4,25.3,12.7L25.3,12.7z"/>
	<path class="st0" d="M106.7,83h6.9V61.8h3v13.8c0,5,3.9,7.8,8.9,7.8c4.9,0,8.9-2.8,8.9-7.8V43.5c0-5-4-7.9-8.9-7.9
		c-5,0-8.9,2.9-8.9,7.9v12.8h-3V36.1h-6.9V83L106.7,83z M123.5,43.5c0-1.5,0.9-2.4,2-2.4s2.1,0.8,2.1,2.4v32.1
		c0,1.5-0.9,2.3-2.1,2.3s-2-0.8-2-2.3V43.5z M152.9,83h6.9V68.5h4.1V83h6.8V49.5h-6.8V63h-4.1V49.5h-6.9V83z M189.5,83h6.6v-1.9
		l4.8-15.4h0.1V83h6.6V49.5H201v1.9l-4.8,15.4h-0.1V49.5h-6.6V83z M226.4,83h9c5,0,9-2.9,9-7.9v-9.4c0-3.3-1.7-5.6-4.4-6.8
		c2.5-1.2,4.2-3.5,4.2-6.7v-8.2c0-5-4-7.9-9-7.9h-8.8V83L226.4,83z M235.5,61.6c1.1,0,2.1,0.9,2.1,2.3v11.2c0,1.5-0.9,2.4-2.1,2.4
		h-2.2V61.6H235.5z M233.3,56.1V41.5h1.9c1.1,0,2.1,0.9,2.1,2.4v10c0,1.5-0.9,2.3-2.1,2.3H233.3z M273.1,61.8v13.8
		c0,1.5-0.9,2.3-2,2.3c-1.1,0-2.1-0.8-2.1-2.3v-6h-6.9v6c0,5,4,7.8,9,7.8c4.9,0,8.8-2.8,8.8-7.8V43.5c0-5-3.9-7.9-8.8-7.9
		c-5,0-9,2.9-9,7.9v6h6.9v-6c0-1.6,0.9-2.4,2.1-2.4c1.1,0,2,0.7,2,2.4v12.8h-6.4v5.5H273.1z M304.9,43.4c0-1.5,0.9-2.3,2-2.3
		c1.1,0,2,0.8,2,2.3v6h6.9v-6c0-5-4-7.8-8.9-7.8c-4.9,0-8.8,2.8-8.8,7.8v32.2c0,5,3.9,7.7,8.8,7.7c4.9,0,8.9-2.7,8.9-7.7v-6.1h-6.9
		v6.1c0,1.4-0.9,2.2-2,2.2c-1.1,0-2-0.8-2-2.2V43.4z M333,41.5h5.6V83h6.8V41.5h5.7v-5.5H333L333,41.5L333,41.5z"/>
</g>
</svg>
